\relax 
\providecommand\hyper@newdestlabel[2]{}
\providecommand\HyperFirstAtBeginDocument{\AtBeginDocument}
\HyperFirstAtBeginDocument{\ifx\hyper@anchor\@undefined
\global\let\oldcontentsline\contentsline
\gdef\contentsline#1#2#3#4{\oldcontentsline{#1}{#2}{#3}}
\global\let\oldnewlabel\newlabel
\gdef\newlabel#1#2{\newlabelxx{#1}#2}
\gdef\newlabelxx#1#2#3#4#5#6{\oldnewlabel{#1}{{#2}{#3}}}
\AtEndDocument{\ifx\hyper@anchor\@undefined
\let\contentsline\oldcontentsline
\let\newlabel\oldnewlabel
\fi}
\fi}
\global\let\hyper@last\relax 
\gdef\HyperFirstAtBeginDocument#1{#1}
\providecommand\HyField@AuxAddToFields[1]{}
\providecommand\HyField@AuxAddToCoFields[2]{}
\catcode `:\active 
\catcode `;\active 
\catcode `!\active 
\catcode `?\active 
\bibstyle{unsrt}
\providecommand\pbs@newkey[2]{}
\providecommand\pbs@seq@push@cx[2]{}
\providecommand\pbs@at@end@dvi@check{}
\pbs@at@end@dvi@check
\providecommand\@anim@newkey[2]{}
\pbs@newkey{pbs@last@page}{1}
\select@language{french}
\@writefile{toc}{\select@language{french}}
\@writefile{lof}{\select@language{french}}
\@writefile{lot}{\select@language{french}}
\@writefile{nav}{\headcommand {\slideentry {0}{0}{1}{1/1}{}{0}}}
\@writefile{nav}{\headcommand {\beamer@framepages {1}{1}}}
\pbs@newkey{pbs@last@page}{2}
\@writefile{nav}{\headcommand {\sectionentry {1}{Introduction}{2}{Introduction}{0}}}
\@writefile{nav}{\headcommand {\beamer@sectionpages {1}{1}}}
\@writefile{nav}{\headcommand {\beamer@subsectionpages {1}{1}}}
\@writefile{nav}{\headcommand {\slideentry {1}{0}{1}{2/2}{}{0}}}
\@writefile{nav}{\headcommand {\beamer@framepages {2}{2}}}
\pbs@newkey{pbs@last@page}{3}
\@writefile{nav}{\headcommand {\slideentry {1}{0}{2}{3/3}{}{0}}}
\@writefile{nav}{\headcommand {\beamer@framepages {3}{3}}}
\pbs@newkey{pbs@last@page}{4}
\@writefile{toc}{\beamer@sectionintoc {2}{Le cadre de travail}{4}{0}{1}}
\@writefile{nav}{\headcommand {\sectionentry {2}{Le cadre de travail}{4}{Le cadre de travail}{0}}}
\@writefile{nav}{\headcommand {\beamer@sectionpages {2}{3}}}
\@writefile{nav}{\headcommand {\beamer@subsectionpages {2}{3}}}
\@writefile{toc}{\beamer@subsectionintoc {2}{1}{L'entreprise d'accueil: W3A}{4}{0}{1}}
\@writefile{nav}{\headcommand {\beamer@subsectionentry {0}{2}{1}{4}{L'entreprise d'accueil: W3A}}\headcommand {\beamer@subsectionpages {4}{3}}}
\@writefile{nav}{\headcommand {\slideentry {2}{1}{1}{4/4}{L'entreprise d'accueil: W3A}{0}}}
\@writefile{nav}{\headcommand {\beamer@framepages {4}{4}}}
\pbs@newkey{pbs@last@page}{5}
\@writefile{nav}{\headcommand {\slideentry {2}{1}{2}{5/5}{L'entreprise d'accueil: W3A}{0}}}
\@writefile{nav}{\headcommand {\beamer@framepages {5}{5}}}
\pbs@newkey{pbs@last@page}{6}
\@writefile{toc}{\beamer@subsectionintoc {2}{2}{Le projet AZOT}{6}{0}{1}}
\@writefile{nav}{\headcommand {\beamer@subsectionentry {0}{2}{2}{6}{Le projet AZOT}}\headcommand {\beamer@subsectionpages {4}{5}}}
\@writefile{nav}{\headcommand {\slideentry {2}{2}{1}{6/6}{Le projet AZOT}{0}}}
\@writefile{nav}{\headcommand {\beamer@framepages {6}{6}}}
\pbs@newkey{pbs@last@page}{7}
\@writefile{nav}{\headcommand {\slideentry {2}{2}{2}{7/7}{Le projet AZOT}{0}}}
\@writefile{nav}{\headcommand {\beamer@framepages {7}{7}}}
\pbs@newkey{pbs@last@page}{8}
\@writefile{nav}{\headcommand {\slideentry {2}{2}{3}{8/8}{Le projet AZOT}{0}}}
\@writefile{nav}{\headcommand {\beamer@framepages {8}{8}}}
\pbs@newkey{pbs@last@page}{9}
\@writefile{toc}{\beamer@sectionintoc {3}{Le sujet du stage: Extraction automatique d'évènements}{9}{0}{2}}
\@writefile{nav}{\headcommand {\sectionentry {3}{Le sujet du stage: Extraction automatique d'évènements}{9}{Le sujet du stage: Extraction automatique d'évènements}{0}}}
\@writefile{nav}{\headcommand {\beamer@sectionpages {4}{8}}}
\@writefile{nav}{\headcommand {\beamer@subsectionpages {6}{8}}}
\@writefile{toc}{\beamer@subsectionintoc {3}{1}{Contextes}{9}{0}{2}}
\@writefile{nav}{\headcommand {\beamer@subsectionentry {0}{3}{1}{9}{Contextes}}\headcommand {\beamer@subsectionpages {9}{8}}}
\@writefile{nav}{\headcommand {\slideentry {3}{1}{1}{9/9}{Contextes}{0}}}
\@writefile{nav}{\headcommand {\beamer@framepages {9}{9}}}
\pbs@newkey{pbs@last@page}{10}
\pbs@newkey{pbs@last@page}{11}
\@writefile{nav}{\headcommand {\slideentry {3}{1}{2}{10/11}{Contextes}{0}}}
\@writefile{nav}{\headcommand {\beamer@framepages {10}{11}}}
\pbs@newkey{pbs@last@page}{12}
\@writefile{toc}{\beamer@subsectionintoc {3}{2}{Objectif durant le stage}{12}{0}{2}}
\@writefile{nav}{\headcommand {\beamer@subsectionentry {0}{3}{2}{12}{Objectif durant le stage}}\headcommand {\beamer@subsectionpages {9}{11}}}
\@writefile{nav}{\headcommand {\slideentry {3}{2}{1}{12/12}{Objectif durant le stage}{0}}}
\@writefile{nav}{\headcommand {\beamer@framepages {12}{12}}}
\pbs@newkey{pbs@last@page}{13}
\@writefile{nav}{\headcommand {\slideentry {3}{2}{2}{13/13}{Objectif durant le stage}{0}}}
\@writefile{nav}{\headcommand {\beamer@framepages {13}{13}}}
\pbs@newkey{pbs@last@page}{14}
\@writefile{toc}{\beamer@sectionintoc {4}{La classification automatique de documents}{14}{0}{3}}
\@writefile{nav}{\headcommand {\sectionentry {4}{La classification automatique de documents}{14}{La classification automatique de documents}{0}}}
\@writefile{nav}{\headcommand {\beamer@sectionpages {9}{13}}}
\@writefile{nav}{\headcommand {\beamer@subsectionpages {12}{13}}}
\@writefile{toc}{\beamer@subsectionintoc {4}{1}{Définition}{14}{0}{3}}
\@writefile{nav}{\headcommand {\beamer@subsectionentry {0}{4}{1}{14}{Définition}}\headcommand {\beamer@subsectionpages {14}{13}}}
\@writefile{nav}{\headcommand {\slideentry {4}{1}{1}{14/14}{Définition}{0}}}
\@writefile{nav}{\headcommand {\beamer@framepages {14}{14}}}
\pbs@newkey{pbs@last@page}{15}
\@writefile{nav}{\headcommand {\slideentry {4}{1}{2}{15/15}{Définition}{0}}}
\@writefile{nav}{\headcommand {\beamer@framepages {15}{15}}}
\pbs@newkey{pbs@last@page}{16}
\@writefile{toc}{\beamer@subsectionintoc {4}{2}{Approche par le clustering}{16}{0}{3}}
\@writefile{nav}{\headcommand {\beamer@subsectionentry {0}{4}{2}{16}{Approche par le clustering}}\headcommand {\beamer@subsectionpages {14}{15}}}
\@writefile{nav}{\headcommand {\slideentry {4}{2}{1}{16/16}{Approche par le clustering}{0}}}
\@writefile{nav}{\headcommand {\beamer@framepages {16}{16}}}
\pbs@newkey{pbs@last@page}{17}
\@writefile{nav}{\headcommand {\slideentry {4}{2}{2}{17/17}{Approche par le clustering}{0}}}
\@writefile{nav}{\headcommand {\beamer@framepages {17}{17}}}
\pbs@newkey{pbs@last@page}{18}
\@writefile{nav}{\headcommand {\slideentry {4}{2}{3}{18/18}{Approche par le clustering}{0}}}
\@writefile{nav}{\headcommand {\beamer@framepages {18}{18}}}
\pbs@newkey{pbs@last@page}{19}
\@writefile{nav}{\headcommand {\slideentry {4}{2}{4}{19/19}{Approche par le clustering}{0}}}
\@writefile{nav}{\headcommand {\beamer@framepages {19}{19}}}
\pbs@newkey{pbs@last@page}{20}
\@writefile{toc}{\beamer@subsectionintoc {4}{3}{Représentation de documents}{20}{0}{3}}
\@writefile{nav}{\headcommand {\beamer@subsectionentry {0}{4}{3}{20}{Représentation de documents}}\headcommand {\beamer@subsectionpages {16}{19}}}
\@writefile{nav}{\headcommand {\slideentry {4}{3}{1}{20/20}{Représentation de documents}{0}}}
\@writefile{nav}{\headcommand {\beamer@framepages {20}{20}}}
\pbs@newkey{pbs@last@page}{21}
\@writefile{nav}{\headcommand {\slideentry {4}{3}{2}{21/21}{Représentation de documents}{0}}}
\@writefile{nav}{\headcommand {\beamer@framepages {21}{21}}}
\pbs@newkey{pbs@last@page}{22}
\@writefile{toc}{\beamer@subsectionintoc {4}{4}{Application pour AZOT}{22}{0}{3}}
\@writefile{nav}{\headcommand {\beamer@subsectionentry {0}{4}{4}{22}{Application pour AZOT}}\headcommand {\beamer@subsectionpages {20}{21}}}
\@writefile{nav}{\headcommand {\slideentry {4}{4}{1}{22/22}{Application pour AZOT}{0}}}
\@writefile{nav}{\headcommand {\beamer@framepages {22}{22}}}
\pbs@newkey{pbs@last@page}{23}
\@writefile{nav}{\headcommand {\slideentry {4}{4}{2}{23/23}{Application pour AZOT}{0}}}
\@writefile{nav}{\headcommand {\beamer@framepages {23}{23}}}
\pbs@newkey{pbs@last@page}{24}
\@writefile{toc}{\beamer@sectionintoc {5}{Observation des résultats obtenus}{24}{0}{4}}
\@writefile{nav}{\headcommand {\sectionentry {5}{Observation des résultats obtenus}{24}{Observation des résultats obtenus}{0}}}
\@writefile{nav}{\headcommand {\beamer@sectionpages {14}{23}}}
\@writefile{nav}{\headcommand {\beamer@subsectionpages {22}{23}}}
\pbs@newkey{pbs@last@page}{25}
\pbs@newkey{pbs@last@page}{26}
\pbs@newkey{pbs@last@page}{27}
\pbs@newkey{pbs@last@page}{28}
\@writefile{nav}{\headcommand {\slideentry {5}{0}{1}{24/28}{}{0}}}
\@writefile{nav}{\headcommand {\beamer@framepages {24}{28}}}
\pbs@newkey{pbs@last@page}{29}
\pbs@newkey{pbs@last@page}{30}
\pbs@newkey{pbs@last@page}{31}
\@writefile{nav}{\headcommand {\slideentry {5}{0}{2}{29/31}{}{0}}}
\@writefile{nav}{\headcommand {\beamer@framepages {29}{31}}}
\pbs@newkey{pbs@last@page}{32}
\@writefile{toc}{\beamer@sectionintoc {6}{A brief review of the MOOC followed}{32}{0}{5}}
\@writefile{nav}{\headcommand {\sectionentry {6}{A brief review of the MOOC followed}{32}{A brief review of the MOOC followed}{0}}}
\@writefile{nav}{\headcommand {\beamer@sectionpages {24}{31}}}
\@writefile{nav}{\headcommand {\beamer@subsectionpages {24}{31}}}
\@writefile{nav}{\headcommand {\slideentry {6}{0}{1}{32/32}{}{0}}}
\@writefile{nav}{\headcommand {\beamer@framepages {32}{32}}}
\pbs@newkey{pbs@last@page}{33}
\@writefile{nav}{\headcommand {\sectionentry {7}{Conclusion}{33}{Conclusion}{0}}}
\@writefile{nav}{\headcommand {\beamer@sectionpages {32}{32}}}
\@writefile{nav}{\headcommand {\beamer@subsectionpages {32}{32}}}
\@writefile{nav}{\headcommand {\slideentry {7}{0}{1}{33/33}{}{0}}}
\@writefile{nav}{\headcommand {\beamer@framepages {33}{33}}}
\citation{*}
\bibstyle{apalike}
\bibdata{Bibliographie}
\bibcite{3}{\hyperlink {beamerbib3}{1}}
\bibcite{4}{\hyperlink {beamerbib4}{2}}
\bibcite{5}{\hyperlink {beamerbib5}{3}}
\bibcite{6}{\hyperlink {beamerbib6}{4}}
\bibcite{9}{\hyperlink {beamerbib9}{5}}
\bibcite{10}{\hyperlink {beamerbib10}{6}}
\bibcite{13}{\hyperlink {beamerbib13}{7}}
\bibcite{14}{\hyperlink {beamerbib14}{8}}
\bibcite{17}{\hyperlink {beamerbib17}{9}}
\bibcite{18}{\hyperlink {beamerbib18}{10}}
\bibcite{scikit-learn}{\hyperlink {beamerbibscikit-learn}{11}}
\bibcite{kmeans}{\hyperlink {beamerbibkmeans}{12}}
\bibcite{mshift}{\hyperlink {beamerbibmshift}{13}}
\pbs@newkey{pbs@last@page}{34}
\@writefile{nav}{\headcommand {\sectionentry {8}{Bibliographie}{34}{Bibliographie}{0}}}
\@writefile{nav}{\headcommand {\beamer@sectionpages {33}{33}}}
\@writefile{nav}{\headcommand {\beamer@subsectionpages {33}{33}}}
\@writefile{nav}{\headcommand {\slideentry {8}{0}{1}{34/34}{}{0}}}
\@writefile{nav}{\headcommand {\beamer@framepages {34}{34}}}
\pbs@newkey{pbs@last@page}{35}
\@writefile{nav}{\headcommand {\slideentry {8}{0}{1}{34/35}{}{0}}}
\@writefile{nav}{\headcommand {\beamer@framepages {34}{35}}}
\pbs@newkey{pbs@last@page}{36}
\@writefile{nav}{\headcommand {\slideentry {8}{0}{1}{34/36}{}{0}}}
\@writefile{nav}{\headcommand {\beamer@framepages {34}{36}}}
\@writefile{nav}{\headcommand {\beamer@partpages {1}{36}}}
\@writefile{nav}{\headcommand {\beamer@subsectionpages {34}{36}}}
\@writefile{nav}{\headcommand {\beamer@sectionpages {34}{36}}}
\@writefile{nav}{\headcommand {\beamer@documentpages {36}}}
\@writefile{nav}{\headcommand {\def \inserttotalframenumber {29}}}
