This is BibTeX, Version 0.99dThe top-level auxiliary file: ModelePresentation.aux
The style file: unsrt.bst
Illegal, another \bibstyle command---line 161 of file ModelePresentation.aux
 : \bibstyle
 :          {apalike}
I'm skipping whatever remains of this command
Database file #1: Bibliographie.bib
Warning--empty author in 3
Warning--empty journal in 6
Warning--empty journal in 10
Warning--there's a number but no volume in 18
(There was 1 error message)
